<?xml version="1.0" encoding="UTF-8"?>
<glyph name="braceright" format="1">
  <advance width="454"/>
  <unicode hex="007D"/>
  <outline>
    <contour>
      <point x="31" y="-131" type="line"/>
      <point x="43" y="-131" type="line" smooth="yes"/>
      <point x="110" y="-131"/>
      <point x="134" y="-81" type="qcurve" smooth="yes"/>
      <point x="158" y="-32"/>
      <point x="158" y="37" type="qcurve" smooth="yes"/>
      <point x="158" y="352" type="line" smooth="yes"/>
      <point x="158" y="423"/>
      <point x="184" y="513"/>
      <point x="206" y="543" type="qcurve" smooth="yes"/>
      <point x="226" y="571"/>
      <point x="252" y="585" type="qcurve" smooth="yes"/>
      <point x="273" y="597"/>
      <point x="301" y="602" type="qcurve"/>
      <point x="301" y="651" type="line"/>
      <point x="274" y="656"/>
      <point x="252" y="670" type="qcurve" smooth="yes"/>
      <point x="227" y="685"/>
      <point x="187" y="741"/>
      <point x="173" y="786" type="qcurve" smooth="yes"/>
      <point x="160" y="829"/>
      <point x="160" y="899" type="qcurve" smooth="yes"/>
      <point x="160" y="1219" type="line" smooth="yes"/>
      <point x="160" y="1282"/>
      <point x="135" y="1334" type="qcurve" smooth="yes"/>
      <point x="111" y="1384"/>
      <point x="43" y="1384" type="qcurve" smooth="yes"/>
      <point x="31" y="1384" type="line"/>
      <point x="31" y="1458" type="line"/>
      <point x="117" y="1458" type="line" smooth="yes"/>
      <point x="187" y="1458"/>
      <point x="291" y="1354"/>
      <point x="291" y="1249" type="qcurve" smooth="yes"/>
      <point x="291" y="930" type="line" smooth="yes"/>
      <point x="291" y="830"/>
      <point x="325" y="758" type="qcurve" smooth="yes"/>
      <point x="359" y="685"/>
      <point x="424" y="670" type="qcurve"/>
      <point x="424" y="588" type="line"/>
      <point x="359" y="573"/>
      <point x="326" y="497" type="qcurve" smooth="yes"/>
      <point x="293" y="420"/>
      <point x="293" y="322" type="qcurve" smooth="yes"/>
      <point x="293" y="4" type="line" smooth="yes"/>
      <point x="293" y="-100"/>
      <point x="240" y="-153" type="qcurve" smooth="yes"/>
      <point x="188" y="-205"/>
      <point x="117" y="-205" type="qcurve" smooth="yes"/>
      <point x="31" y="-205" type="line"/>
    </contour>
  </outline>
</glyph>
