<?xml version="1.0" encoding="UTF-8"?>
<glyph name="Oslash" format="1">
  <advance width="872"/>
  <unicode hex="00D8"/>
  <outline>
    <contour>
      <point x="53" y="-47" type="line"/>
      <point x="152" y="160" type="line"/>
      <point x="111" y="247"/>
      <point x="111" y="332" type="qcurve" smooth="yes"/>
      <point x="111" y="1126" type="line" smooth="yes"/>
      <point x="111" y="1214"/>
      <point x="139" y="1277" type="qcurve" smooth="yes"/>
      <point x="167" y="1341"/>
      <point x="214" y="1383" type="qcurve" smooth="yes"/>
      <point x="263" y="1427"/>
      <point x="318" y="1447" type="qcurve" smooth="yes"/>
      <point x="377" y="1468"/>
      <point x="436" y="1468" type="qcurve" smooth="yes"/>
      <point x="503" y="1468"/>
      <point x="566" y="1440" type="qcurve" smooth="yes"/>
      <point x="631" y="1411"/>
      <point x="700" y="1339" type="qcurve"/>
      <point x="784" y="1526" type="line"/>
      <point x="819" y="1505" type="line"/>
      <point x="721" y="1298" type="line"/>
      <point x="762" y="1211"/>
      <point x="762" y="1126" type="qcurve" smooth="yes"/>
      <point x="762" y="332" type="line" smooth="yes"/>
      <point x="762" y="247"/>
      <point x="733" y="181" type="qcurve" smooth="yes"/>
      <point x="705" y="117"/>
      <point x="658" y="75" type="qcurve" smooth="yes"/>
      <point x="609" y="31"/>
      <point x="554" y="11" type="qcurve" smooth="yes"/>
      <point x="495" y="-10"/>
      <point x="436" y="-10" type="qcurve" smooth="yes"/>
      <point x="370" y="-10"/>
      <point x="305" y="18" type="qcurve" smooth="yes"/>
      <point x="242" y="45"/>
      <point x="174" y="121" type="qcurve"/>
      <point x="88" y="-68" type="line"/>
    </contour>
    <contour>
      <point x="268" y="326" type="line"/>
      <point x="272" y="238"/>
      <point x="372" y="154"/>
      <point x="436" y="154" type="qcurve" smooth="yes"/>
      <point x="503" y="154"/>
      <point x="553" y="197" type="qcurve" smooth="yes"/>
      <point x="604" y="240"/>
      <point x="604" y="332" type="qcurve" smooth="yes"/>
      <point x="604" y="952" type="line"/>
      <point x="557" y="952" type="line"/>
    </contour>
    <contour>
      <point x="268" y="504" type="line"/>
      <point x="315" y="504" type="line"/>
      <point x="604" y="1133" type="line"/>
      <point x="598" y="1225"/>
      <point x="500" y="1305"/>
      <point x="436" y="1305" type="qcurve" smooth="yes"/>
      <point x="369" y="1305"/>
      <point x="319" y="1262" type="qcurve" smooth="yes"/>
      <point x="268" y="1218"/>
      <point x="268" y="1126" type="qcurve" smooth="yes"/>
    </contour>
  </outline>
</glyph>
