<?xml version="1.0" encoding="UTF-8"?>
<glyph name="q" format="1">
  <advance width="829"/>
  <unicode hex="0071"/>
  <outline>
    <contour>
      <point x="78" y="367" type="qcurve" smooth="yes"/>
      <point x="78" y="858" type="line" smooth="yes"/>
      <point x="78" y="934"/>
      <point x="104" y="995" type="qcurve" smooth="yes"/>
      <point x="132" y="1061"/>
      <point x="177" y="1107" type="qcurve" smooth="yes"/>
      <point x="225" y="1157"/>
      <point x="285" y="1183" type="qcurve" smooth="yes"/>
      <point x="346" y="1210"/>
      <point x="416" y="1210" type="qcurve" smooth="yes"/>
      <point x="446" y="1210"/>
      <point x="478" y="1203" type="qcurve" smooth="yes"/>
      <point x="507" y="1197"/>
      <point x="573" y="1171" type="qcurve"/>
      <point x="573" y="1210" type="line"/>
      <point x="750" y="1210" type="line"/>
      <point x="750" y="-248" type="line"/>
      <point x="573" y="-248" type="line"/>
      <point x="573" y="47" type="line"/>
      <point x="514" y="27"/>
      <point x="478" y="19" type="qcurve" smooth="yes"/>
      <point x="446" y="12"/>
      <point x="416" y="12" type="qcurve" smooth="yes"/>
      <point x="349" y="12"/>
      <point x="285" y="40" type="qcurve" smooth="yes"/>
      <point x="225" y="66"/>
      <point x="177" y="116" type="qcurve" smooth="yes"/>
      <point x="131" y="163"/>
      <point x="104" y="228" type="qcurve" smooth="yes"/>
      <point x="78" y="290"/>
    </contour>
    <contour>
      <point x="254" y="367" type="line" smooth="yes"/>
      <point x="254" y="296"/>
      <point x="301" y="247" type="qcurve" smooth="yes"/>
      <point x="348" y="199"/>
      <point x="416" y="199" type="qcurve" smooth="yes"/>
      <point x="481" y="199"/>
      <point x="573" y="297"/>
      <point x="573" y="367" type="qcurve" smooth="yes"/>
      <point x="573" y="858" type="line" smooth="yes"/>
      <point x="573" y="928"/>
      <point x="481" y="1026"/>
      <point x="416" y="1026" type="qcurve" smooth="yes"/>
      <point x="347" y="1026"/>
      <point x="301" y="977" type="qcurve" smooth="yes"/>
      <point x="254" y="927"/>
      <point x="254" y="858" type="qcurve" smooth="yes"/>
    </contour>
  </outline>
</glyph>
