<?xml version="1.0" encoding="UTF-8"?>
<glyph name="uni25FC" format="1">
  <advance width="1210"/>
  <unicode hex="25FC"/>
  <outline>
    <contour>
      <point x="0" y="0" type="line"/>
      <point x="0" y="1210" type="line"/>
      <point x="1210" y="1210" type="line"/>
      <point x="1210" y="0" type="line"/>
    </contour>
  </outline>
</glyph>
